[comment encoding = UTF-8 /]
[module generate('http://www.example.org/cs.ecore')]

[query public fileName(f: File) : String = f.filename.concat('.cs')/] 

[template public generateProgram(program : Program)]
[comment @main/]
[for (f: File | program.files)]
[generateFile(f)/]
[/for]
[/template]

[template public generateFile(f : File)]
[file (fileName(f), false, 'UTF-8')]
[for (ns: Namespace | f.namespaces)]
[generateNamespace(ns)/] 
[/for]
[/file]
[/template]

[template public generateNamespace(ns : Namespace)]
namespace [ns.namespace/] {
	[for (using: String | ns.using) before('\t// using directives\n')]
	using [using/];
	[/for]
	[for (childNs: Namespace | ns.innerNamespaces)]
	[generateNamespace(childNs)/]
	[/for]
	[for (typeDef: InternalType | ns.typedefs) before('\t// Type definitions\n') separator('\n')]
	[generateInternalType(typeDef)/]
	[/for]
}
[/template]

[template public generateInternalType(type : InternalType)]
[/template]

[template public generateInternalType(struct: Struct)]
[generateInternalType(struct, struct.implements)/]
[/template]

[template public generateInternalType(class: Class)]
[generateInternalType(class, class.baseType->asOrderedSet()->addAll(class.implements))/]
[/template]

[template public generateInternalType(containment : Containment, derivations: OrderedSet(TypeDef))]
[generateTypeDef(containment.accessability, containment.specifier, containment.getType(), containment.identifier, derivations)/] {
	[for (member : MemberDef | containment.members) before('\n\t// members\n')]
	[generateMember(member)/]
	[/for]
	[for (constructor: ConstructorDef | containment.constructors) before('\n\t// constructors\n')]
	[generateConstructor(constructor)/]
	[/for]
	[for (method : MethodDef | containment.methods) before('\n\t// methods\n') separator('\n')]
	[generateMethod(method)/]
	[/for]
	[for (typeDef : InternalType | containment.typedefs) before('\n\t// inner types\n')]
	[generateInternalType(typeDef)/]
	[/for]

}
[/template]

[template public generateInternalType(interface : Interface)]
[generateTypeDef(interface.accessability, interface.specifier, interface.getType(), interface.identifier, OrderedSet{})/] {
	[for (method : MethodDef | interface.methods) before('\t// interface methods\n')]
	[method.returnType.getQualifiedName()/] [method.identifier/]([generateParams(method.parameters)/]);
	[/for]
}
[/template]

[template public generateInternalType(delegate : Delegate)]
[access(delegate.accessability)/][spec(delegate.specifier)/][delegate.getType().toString()/] [delegate.returnType.getQualifiedName()/] [delegate.identifier/]([generateParams(delegate.parameters)/]);
[/template]

[template public generateInternalType(enum : Enum)]
[generateTypeDef(enum.accessability, enum.specifier, enum.getType(), enum.identifier, OrderedSet{})/][if enum.base <> EPrimitiveType::int] : [enum.base.toString()/][/if] {
	[for (literal: Literal | enum.literals) separator(', ')][literal.identifier/][if literal.value.oclIsUndefined() or literal.value.size() = 0][else] = [literal.value/][/if][/for]

}
[/template]

[template public generateTypeDef(access: AccessModifier, spec: Specifier, type: EType, id: String, derivations: OrderedSet(TypeDef))]
[access(access)/][spec(spec)/][type.toString()/] [id/][for (derivation: TypeDef | derivations) before(' : ') separator(', ')][derivation.getQualifiedName()/][/for]
[/template]

[template public generateMember(member: MemberDef)]
[access(member.accessability)/][spec(member.specifier)/][member.type.getQualifiedName()/] [member.identifier/];
[/template]

[template public generateConstructor(constructor: ConstructorDef)]
[generateFunction(constructor.accessability, constructor.specifier, '', constructor.owner.identifier, constructor.parameters, constructor._body)/]
[/template]

[template public generateMethod(method: MethodDef)]
[generateFunction(method.accessability, method.specifier, method.returnType.getQualifiedName(), method.identifier, method.parameters, method._body)/]
[/template]

[template public generateFunction(access: AccessModifier, spec: Specifier, returnType: String, identifier: String, params: OrderedSet(Parameter), _body: Sequence(String))]
[access(access)/][spec(spec)/][returnType/] [identifier/]([generateParams(params)/]) {
	[for (stat : String | _body)]
	[stat/]
	[/for]
}
[/template]

[template public generateParams(params: OrderedSet(Parameter))]
[for (param: Parameter | params) separator(', ')][varSpec(param.specifier)/][param.type.getQualifiedName()/] [param.identifier/][/for]
[/template]

[template public spec(specifier: Specifier)]
[if specifier = Specifier::none][else][specifier.toString()/] [/if]
[/template]

[template public varSpec(specifier: VarSpecifier)]
[if specifier = VarSpecifier::none][else][specifier.toString()/] [/if]
[/template]

[template public access(accessability: AccessModifier)]
[if accessability = AccessModifier::none][else][if accessability = AccessModifier::private_protected]private protected [else][if accessability = AccessModifier::protected_internal]protected internal [else][accessability.toString()/] [/if][/if][/if]
[/template]









